{
  "page": 1,
  "total_results": 10000,
  "total_pages": 500,
  "results": [
    {
      "popularity": 298.621,
      "vote_count": 7189,
      "video": false,
      "poster_path": "/c9XxwwhPHdaImA2f1WEfEsbhaFB.jpg",
      "id": 351286,
      "adult": false,
      "backdrop_path": "/3s9O5af2xWKWR5JzP2iJZpZeQQg.jpg",
      "original_language": "en",
      "original_title": "Jurassic World: Fallen Kingdom",
      "genre_ids": [
        28,
        12,
        878
      ],
      "title": "Jurassic World: Fallen Kingdom",
      "vote_average": 6.5,
      "overview": "Three years after the demise of Jurassic World, a volcanic eruption threatens the remaining dinosaurs on the isla Nublar, so Claire Dearing, the former park manager, recruits Owen Grady to help prevent the extinction of the dinosaurs once again.",
      "release_date": "2018-06-06"
    },
    {
      "popularity": 297.915,
      "vote_count": 2262,
      "video": false,
      "poster_path": "/y95lQLnuNKdPAzw9F9Ab8kJ80c3.jpg",
      "id": 38700,
      "adult": false,
      "backdrop_path": "/upUy2QhMZEmtypPW3PdieKLAHxh.jpg",
      "original_language": "en",
      "original_title": "Bad Boys for Life",
      "genre_ids": [
        28,
        80,
        53
      ],
      "title": "Bad Boys for Life",
      "vote_average": 7,
      "overview": "Marcus and Mike are forced to confront new threats, career changes, and midlife crises as they join the newly created elite team AMMO of the Miami police department to take down the ruthless Armando Armas, the vicious leader of a Miami drug cartel.",
      "release_date": "2020-01-15"
    },
    {
      "popularity": 428.036,
      "vote_count": 3730,
      "video": false,
      "poster_path": "/s5HQf2Gb3lIO2cRcFwNL9sn1o1o.jpg",
      "id": 335988,
      "adult": false,
      "backdrop_path": "/1n00NlOGRFZVs8coBxyZLm5l4EC.jpg",
      "original_language": "en",
      "original_title": "Transformers: The Last Knight",
      "genre_ids": [
        28,
        12,
        878,
        53
      ],
      "title": "Transformers: The Last Knight",
      "vote_average": 6,
      "overview": "Autobots and Decepticons are at war, with humans on the sidelines. Optimus Prime is gone. The key to saving our future lies buried in the secrets of the past, in the hidden history of Transformers on Earth.",
      "release_date": "2017-06-16"
    },
    {
      "popularity": 276.839,
      "vote_count": 1230,
      "video": false,
      "poster_path": "/8WUVHemHFH2ZIP6NWkwlHWsyrEL.jpg",
      "id": 338762,
      "adult": false,
      "backdrop_path": "/ocUrMYbdjknu2TwzMHKT9PBBQRw.jpg",
      "original_language": "en",
      "original_title": "Bloodshot",
      "genre_ids": [
        28,
        878
      ],
      "title": "Bloodshot",
      "vote_average": 7.2,
      "overview": "After he and his wife are murdered, marine Ray Garrison is resurrected by a team of scientists. Enhanced with nanotechnology, he becomes a superhuman, biotech killing machine—'Bloodshot'. As Ray first trains with fellow super-soldiers, he cannot recall anything from his former life. But when his memories flood back and he remembers the man that killed both him and his wife, he breaks out of the facility to get revenge, only to discover that there's more to the conspiracy than he thought.",
      "release_date": "2020-02-20"
    },
    {
      "popularity": 239.338,
      "vote_count": 499,
      "video": false,
      "poster_path": "/6vaqTxkRnoGwjeLqyZbVuVR7Snv.jpg",
      "id": 443791,
      "adult": false,
      "backdrop_path": "/fYPiQewg7ogbzro2XcCTACSB2KC.jpg",
      "original_language": "en",
      "original_title": "Underwater",
      "genre_ids": [
        28,
        27,
        878,
        53
      ],
      "title": "Underwater",
      "vote_average": 6.4,
      "overview": "After an earthquake destroys their underwater station, six researchers must navigate two miles along the dangerous, unknown depths of the ocean floor to make it to safety in a race against time.",
      "release_date": "2020-01-08"
    },
    {
      "popularity": 237.952,
      "vote_count": 2513,
      "video": false,
      "poster_path": "/h4VB6m0RwcicVEZvzftYZyKXs6K.jpg",
      "id": 495764,
      "adult": false,
      "backdrop_path": "/jiqD14fg7UTZOT6qgvzTmfRYpWI.jpg",
      "original_language": "en",
      "original_title": "Birds of Prey (and the Fantabulous Emancipation of One Harley Quinn)",
      "genre_ids": [
        28,
        35,
        80
      ],
      "title": "Birds of Prey (and the Fantabulous Emancipation of One Harley Quinn)",
      "vote_average": 7.1,
      "overview": "Harley Quinn joins forces with a singer, an assassin and a police detective to help a young girl who had a hit placed on her after she stole a rare diamond from a crime lord.",
      "release_date": "2020-02-05"
    },
    {
      "popularity": 276.492,
      "vote_count": 2684,
      "video": false,
      "poster_path": "/nrsx0jEaBgXq4PWo7SooSnYJTv.jpg",
      "id": 274855,
      "adult": false,
      "backdrop_path": "/79X8JkGxzc1tJMi0KxUSaPLooVg.jpg",
      "original_language": "en",
      "original_title": "Geostorm",
      "genre_ids": [
        28,
        878,
        53
      ],
      "title": "Geostorm",
      "vote_average": 5.8,
      "overview": "After an unprecedented series of natural disasters threatened the planet, the world's leaders came together to create an intricate network of satellites to control the global climate and keep everyone safe. But now, something has gone wrong: the system built to protect Earth is attacking it, and it becomes a race against the clock to uncover the real threat before a worldwide geostorm wipes out everything and everyone along with it.",
      "release_date": "2017-10-13"
    },
    {
      "popularity": 189.675,
      "id": 1572,
      "video": false,
      "vote_count": 3731,
      "vote_average": 7.1,
      "title": "Die Hard: With a Vengeance",
      "release_date": "1995-05-19",
      "original_language": "en",
      "original_title": "Die Hard: With a Vengeance",
      "genre_ids": [
        28,
        53
      ],
      "backdrop_path": "/aJCEQFFXNcfg5YneJzTG15qzxF7.jpg",
      "adult": false,
      "overview": "New York detective John McClane is back and kicking bad-guy butt in the third installment of this action-packed series, which finds him teaming with civilian Zeus Carver to prevent the loss of innocent lives. McClane thought he'd seen it all, until a genius named Simon engages McClane, his new \"partner\" -- and his beloved city -- in a deadly game that demands their concentration.",
      "poster_path": "/ivpXGcsPZglyYrN65THWSD7JM3q.jpg"
    },
    {
      "popularity": 180.022,
      "vote_count": 3741,
      "video": false,
      "poster_path": "/db32LaOibwEliAmSL2jjDF6oDdj.jpg",
      "id": 181812,
      "adult": false,
      "backdrop_path": "/jOzrELAzFxtMx2I4uDGHOotdfsS.jpg",
      "original_language": "en",
      "original_title": "Star Wars: The Rise of Skywalker",
      "genre_ids": [
        28,
        12,
        878
      ],
      "title": "Star Wars: The Rise of Skywalker",
      "vote_average": 6.5,
      "overview": "The surviving Resistance faces the First Order once again as the journey of Rey, Finn and Poe Dameron continues. With the power and knowledge of generations behind them, the final battle begins.",
      "release_date": "2019-12-18"
    },
    {
      "popularity": 258.636,
      "vote_count": 1871,
      "video": false,
      "poster_path": "/4gpW4MkRI0BB17GHOJzXq0WamDP.jpg",
      "id": 300671,
      "adult": false,
      "backdrop_path": "/hY8myWhjSOUeeiPskhOfwwgaCwc.jpg",
      "original_language": "en",
      "original_title": "13 Hours: The Secret Soldiers of Benghazi",
      "genre_ids": [
        28,
        36,
        53
      ],
      "title": "13 Hours: The Secret Soldiers of Benghazi",
      "vote_average": 7.1,
      "overview": "An American Ambassador is killed during an attack at a U.S. compound in Libya as a security team struggles to make sense out of the chaos.",
      "release_date": "2016-01-13"
    },
    {
      "popularity": 178.447,
      "vote_count": 1946,
      "video": false,
      "poster_path": "/aQvJ5WPzZgYVDrxLX4R6cLJCEaQ.jpg",
      "id": 454626,
      "adult": false,
      "backdrop_path": "/stmYfCUGd8Iy6kAMBr6AmWqx8Bq.jpg",
      "original_language": "en",
      "original_title": "Sonic the Hedgehog",
      "genre_ids": [
        28,
        16,
        35,
        878,
        10751
      ],
      "title": "Sonic the Hedgehog",
      "vote_average": 7.4,
      "overview": "Based on the global blockbuster videogame franchise from Sega, Sonic the Hedgehog tells the story of the world’s speediest hedgehog as he embraces his new home on Earth. In this live-action adventure comedy, Sonic and his new best friend team up to defend the planet from the evil genius Dr. Robotnik and his plans for world domination.",
      "release_date": "2020-02-12"
    },
    {
      "popularity": 324.592,
      "vote_count": 12099,
      "video": false,
      "poster_path": "/5vHssUeVe25bMrof1HyaPyWgaP.jpg",
      "id": 245891,
      "adult": false,
      "backdrop_path": "/lvjRFFyNLdaMWIMYQvoebeO1JlF.jpg",
      "original_language": "en",
      "original_title": "John Wick",
      "genre_ids": [
        28,
        53
      ],
      "title": "John Wick",
      "vote_average": 7.2,
      "overview": "Ex-hitman John Wick comes out of retirement to track down the gangsters that took everything from him.",
      "release_date": "2014-10-22"
    },
    {
      "popularity": 114.449,
      "vote_count": 316,
      "video": false,
      "poster_path": "/rmflsMjk4lxx2foNUtd1OKWv6vB.jpg",
      "id": 514847,
      "adult": false,
      "backdrop_path": "/qfQ78ZKiouoM2yhAnfNblp9ijQE.jpg",
      "original_language": "en",
      "original_title": "The Hunt",
      "genre_ids": [
        28,
        27,
        53
      ],
      "title": "The Hunt",
      "vote_average": 6.8,
      "overview": "Twelve strangers wake up in a clearing. They don't know where they are—or how they got there. In the shadow of a dark internet conspiracy theory, ruthless elitists gather at a remote location to hunt humans for sport. But their master plan is about to be derailed when one of the hunted turns the tables on her pursuers.",
      "release_date": "2020-03-11"
    },
    {
      "popularity": 166.575,
      "vote_count": 13578,
      "video": false,
      "poster_path": "/D6e8RJf2qUstnfkTslTXNTUAlT.jpg",
      "id": 102899,
      "adult": false,
      "backdrop_path": "/kvXLZqY0Ngl1XSw7EaMQO0C1CCj.jpg",
      "original_language": "en",
      "original_title": "Ant-Man",
      "genre_ids": [
        28,
        12,
        878
      ],
      "title": "Ant-Man",
      "vote_average": 7.1,
      "overview": "Armed with the astonishing ability to shrink in scale but increase in strength, master thief Scott Lang must embrace his inner-hero and help his mentor, Doctor Hank Pym, protect the secret behind his spectacular Ant-Man suit from a new generation of towering threats. Against seemingly insurmountable obstacles, Pym and Lang must plan and pull off a heist that will save the world.",
      "release_date": "2015-07-14"
    },
    {
      "popularity": 117.656,
      "vote_count": 3952,
      "video": false,
      "poster_path": "/AuGiPiGMYMkSosOJ3BQjDEAiwtO.jpg",
      "id": 530915,
      "adult": false,
      "backdrop_path": "/2lBOQK06tltt8SQaswgb8d657Mv.jpg",
      "original_language": "en",
      "original_title": "1917",
      "genre_ids": [
        28,
        18,
        53,
        10752
      ],
      "title": "1917",
      "vote_average": 7.9,
      "overview": "At the height of the First World War, two young British soldiers must cross enemy territory and deliver a message that will stop a deadly attack on hundreds of soldiers.",
      "release_date": "2019-12-25"
    },
    {
      "popularity": 102.462,
      "vote_count": 670,
      "video": false,
      "poster_path": "/jtrhTYB7xSrJxR1vusu99nvnZ1g.jpg",
      "id": 522627,
      "adult": false,
      "backdrop_path": "/aOoKjLoZWia4Uy5nbumrefdJPV6.jpg",
      "original_language": "en",
      "original_title": "The Gentlemen",
      "genre_ids": [
        28,
        35,
        80
      ],
      "title": "The Gentlemen",
      "vote_average": 7.8,
      "overview": "American expat Mickey Pearson has built a highly profitable marijuana empire in London. When word gets out that he’s looking to cash out of the business forever it triggers plots, schemes, bribery and blackmail in an attempt to steal his domain out from under him.",
      "release_date": "2019-12-16"
    },
    {
      "popularity": 126.136,
      "vote_count": 132,
      "video": false,
      "poster_path": "/8dLVctGNdKoN7QuUUUjipju7WqV.jpg",
      "id": 31967,
      "adult": false,
      "backdrop_path": "/u7ZiRakTdU2NeYIf0CdF1mr0P6D.jpg",
      "original_language": "en",
      "original_title": "Dante's Inferno: An Animated Epic",
      "genre_ids": [
        28,
        12,
        16,
        27
      ],
      "title": "Dante's Inferno: An Animated Epic",
      "vote_average": 6.1,
      "overview": "Dante journeys through the nine circles of Hell -- limbo, lust, gluttony, greed, anger, heresy, violence, fraud and treachery -- in search of his true love, Beatrice. An animated version of the video game of the same name.",
      "release_date": "2010-02-09"
    },
    {
      "popularity": 123.529,
      "id": 2503,
      "video": false,
      "vote_count": 4999,
      "vote_average": 7.4,
      "title": "The Bourne Ultimatum",
      "release_date": "2007-08-03",
      "original_language": "en",
      "original_title": "The Bourne Ultimatum",
      "genre_ids": [
        28,
        18,
        9648,
        53
      ],
      "backdrop_path": "/6WpDOqkZFmhNJ0rwuLJiZVKlZi1.jpg",
      "adult": false,
      "overview": "Bourne is brought out of hiding once again by reporter Simon Ross who is trying to unveil Operation Blackbriar, an upgrade to Project Treadstone, in a series of newspaper columns. Information from the reporter stirs a new set of memories, and Bourne must finally uncover his dark past while dodging The Company's best efforts to eradicate him.",
      "poster_path": "/fHho6JYYY0nRcETWSoeI19iZsNF.jpg"
    },
    {
      "popularity": 122.247,
      "vote_count": 4613,
      "video": false,
      "poster_path": "/l542hLtKhsmOWEBFoC7Aajk0nKt.jpg",
      "id": 117263,
      "adult": false,
      "backdrop_path": "/lxbMXD12UCj7kMgfqjaZq5irGAu.jpg",
      "original_language": "en",
      "original_title": "Olympus Has Fallen",
      "genre_ids": [
        28,
        53
      ],
      "title": "Olympus Has Fallen",
      "vote_average": 6.3,
      "overview": "When the White House (Secret Service Code: \"Olympus\") is captured by a terrorist mastermind and the President is kidnapped, disgraced former Presidential guard Mike Banning finds himself trapped within the building. As the national security team scrambles to respond, they are forced to rely on Banning's inside knowledge to help retake the White House, save the President and avert an even bigger disaster.",
      "release_date": "2013-03-20"
    },
    {
      "popularity": 82.363,
      "vote_count": 6609,
      "video": false,
      "poster_path": "/4q2NNj4S5dG2RLF9CpXsej7yXl.jpg",
      "id": 429617,
      "adult": false,
      "backdrop_path": "/5myQbDzw3l8K9yofUXRJ4UTVgam.jpg",
      "original_language": "en",
      "original_title": "Spider-Man: Far from Home",
      "genre_ids": [
        28,
        12,
        878
      ],
      "title": "Spider-Man: Far from Home",
      "vote_average": 7.5,
      "overview": "Peter Parker and his friends go on a summer trip to Europe. However, they will hardly be able to rest - Peter will have to agree to help Nick Fury uncover the mystery of creatures that cause natural disasters and destruction throughout the continent.",
      "release_date": "2019-06-28"
    }
  ]
}